cse2441/cse2441_labs/lab7/question3/simulation/qsim/figure7.msim.vcd
$comment
	File created using the following command:
		vcd file figure7.msim.vcd -direction
$end
$date
	Fri Mar 08 15:28:59 2024
$end
$version
	ModelSim Version 2020.1
$end
$timescale
	1ps
$end

$scope module figure7_vlg_vec_tst $end
$var reg 1 ! Clear $end
$var reg 1 " Count $end
$var wire 1 # y0 $end
$var wire 1 $ y1 $end
$var wire 1 % y2 $end

$scope module i1 $end
$var wire 1 & gnd $end
$var wire 1 ' vcc $end
$var wire 1 ( unknown $end
$var tri1 1 ) devclrn $end
$var tri1 1 * devpor $end
$var tri1 1 + devoe $end
$var wire 1 , ~QUARTUS_CREATED_GND~I_combout $end
$var wire 1 - ~QUARTUS_CREATED_UNVM~~busy $end
$var wire 1 . ~QUARTUS_CREATED_ADC1~~eoc $end
$var wire 1 / ~QUARTUS_CREATED_ADC2~~eoc $end
$var wire 1 0 y0~output_o $end
$var wire 1 1 y1~output_o $end
$var wire 1 2 y2~output_o $end
$var wire 1 3 Count~input_o $end
$var wire 1 4 Count~inputclkctrl_outclk $end
$var wire 1 5 inst2~0_combout $end
$var wire 1 6 Clear~input_o $end
$var wire 1 7 Clear~inputclkctrl_outclk $end
$var wire 1 8 inst2~q $end
$var wire 1 9 inst1~0_combout $end
$var wire 1 : inst1~q $end
$var wire 1 ; tmp~0_combout $end
$var wire 1 < tmp~q $end
$upscope $end
$upscope $end
$enddefinitions $end
#0
$dumpvars
1!
0"
0#
0$
0%
0&
1'
x(
1)
1*
1+
0,
z-
z.
z/
00
01
02
03
04
15
16
17
08
09
0:
0;
0<
$end
#50000
1"
13
14
18
10
1#
19
05
#100000
0"
03
04
#150000
1"
13
14
1:
08
00
11
1$
0#
15
#200000
0"
03
04
#250000
1"
13
14
18
10
1#
1;
09
05
#300000
0"
03
04
#350000
1"
13
14
1<
0:
08
00
01
12
1%
0$
0#
15
#400000
0"
03
04
#450000
1"
13
14
18
10
1#
19
05
#500000
0"
03
04
#550000
1"
13
14
1:
08
00
11
1$
0#
15
#600000
0"
03
04
#650000
1"
13
14
18
10
1#
0;
09
05
#700000
0"
03
04
#750000
1"
13
14
0<
0:
08
00
01
02
0%
0$
0#
15
#800000
0"
03
04
#850000
1"
13
14
18
10
1#
19
05
#900000
0"
03
04
#950000
1"
13
14
1:
08
00
11
1$
0#
15
#1000000
0"
03
04
#1050000
1"
13
14
18
10
1#
1;
09
05
#1100000
0"
03
04
#1150000
1"
13
14
1<
0:
08
00
01
12
1%
0$
0#
15
#1200000
0"
03
04
#1250000
1"
13
14
18
10
1#
19
05
#1300000
0"
03
04
#1350000
1"
13
14
1:
08
00
11
1$
0#
15
