cse2441/cse2441_labs/FullAdder/simulation/qsim/FullAdder.msim.vcd
$comment
	File created using the following command:
		vcd file FullAdder.msim.vcd -direction
$end
$date
	Fri Feb 09 15:02:27 2024
$end
$version
	ModelSim Version 2020.1
$end
$timescale
	1ps
$end

$scope module FullAdder_vlg_vec_tst $end
$var reg 1 ! A $end
$var reg 1 " B $end
$var reg 1 # C $end
$var wire 1 $ P $end
$var wire 1 % Q $end

$scope module i1 $end
$var wire 1 & gnd $end
$var wire 1 ' vcc $end
$var wire 1 ( unknown $end
$var tri1 1 ) devclrn $end
$var tri1 1 * devpor $end
$var tri1 1 + devoe $end
$var wire 1 , ~QUARTUS_CREATED_GND~I_combout $end
$var wire 1 - ~QUARTUS_CREATED_UNVM~~busy $end
$var wire 1 . ~QUARTUS_CREATED_ADC1~~eoc $end
$var wire 1 / ~QUARTUS_CREATED_ADC2~~eoc $end
$var wire 1 0 P~output_o $end
$var wire 1 1 Q~output_o $end
$var wire 1 2 C~input_o $end
$var wire 1 3 B~input_o $end
$var wire 1 4 A~input_o $end
$var wire 1 5 inst2~0_combout $end
$var wire 1 6 inst5~0_combout $end
$upscope $end
$upscope $end
$enddefinitions $end
#0
$dumpvars
0!
0"
0#
0$
0%
0&
1'
x(
1)
1*
1+
0,
z-
z.
z/
00
01
02
03
04
05
06
$end
#50000
1!
1#
12
14
16
11
1%
#100000
0#
02
06
15
10
01
0%
1$
#200000
1"
0!
1#
12
04
13
16
05
00
11
1%
0$
#300000
0#
02
06
15
10
01
0%
1$
#400000
0"
1!
1#
12
14
03
16
05
00
11
1%
0$
#500000
1"
0!
0#
02
04
13
06
15
10
01
0%
1$
#600000
1!
14
16
05
00
11
1%
0$
#700000
1#
12
15
10
1$
#800000
0!
0#
02
04
06
01
0%
