cse2441/cse2441_labs/lab3/simulation/qsim/lab3.msim.vcd
$comment
	File created using the following command:
		vcd file lab3.msim.vcd -direction
$end
$date
	Fri Feb 09 14:45:37 2024
$end
$version
	ModelSim Version 2020.1
$end
$timescale
	1ps
$end

$scope module lab3_vlg_vec_tst $end
$var reg 1 ! A $end
$var reg 1 " B $end
$var reg 1 # C $end
$var reg 1 $ D $end
$var wire 1 % F $end

$scope module i1 $end
$var wire 1 & gnd $end
$var wire 1 ' vcc $end
$var wire 1 ( unknown $end
$var tri1 1 ) devclrn $end
$var tri1 1 * devpor $end
$var tri1 1 + devoe $end
$var wire 1 , A~input_o $end
$var wire 1 - D~input_o $end
$var wire 1 . ~QUARTUS_CREATED_GND~I_combout $end
$var wire 1 / ~QUARTUS_CREATED_UNVM~~busy $end
$var wire 1 0 ~QUARTUS_CREATED_ADC1~~eoc $end
$var wire 1 1 ~QUARTUS_CREATED_ADC2~~eoc $end
$var wire 1 2 F~output_o $end
$var wire 1 3 B~input_o $end
$var wire 1 4 C~input_o $end
$var wire 1 5 inst4~0_combout $end
$upscope $end
$upscope $end
$enddefinitions $end
#0
$dumpvars
0!
0"
0#
1$
0%
0&
1'
x(
1)
1*
1+
0,
1-
0.
z/
z0
z1
02
03
04
05
$end
#50000
1"
13
15
12
1%
#100000
1#
0$
0-
14
#150000
1!
1$
1-
1,
#200000
0#
04
#250000
0"
1#
14
03
#300000
0!
0$
0-
0,
#400000
0#
1$
1-
04
05
02
0%
#450000
1!
1#
14
1,
15
12
1%
#500000
0$
0-
#600000
0!
0,
#650000
1"
13
#700000
1!
1,
#750000
0#
0"
03
04
05
02
0%
#800000
1#
14
15
12
1%
#850000
0!
0,
#900000
1$
1-
#950000
0#
04
05
02
0%
