cse2441/cse2441_labs/RippleCarryAdder/simulation/qsim/RippleCarryAdder.msim.vcd
$comment
	File created using the following command:
		vcd file RippleCarryAdder.msim.vcd -direction
$end
$date
	Fri Feb 09 16:00:46 2024
$end
$version
	ModelSim Version 2020.1
$end
$timescale
	1ps
$end

$scope module RippleCarryAdder_vlg_vec_tst $end
$var reg 1 ! A0 $end
$var reg 1 " A1 $end
$var reg 1 # A2 $end
$var reg 1 $ A3 $end
$var reg 1 % B0 $end
$var reg 1 & B1 $end
$var reg 1 ' B2 $end
$var reg 1 ( B3 $end
$var reg 1 ) C0 $end
$var wire 1 * C4 $end
$var wire 1 + S0 $end
$var wire 1 , S1 $end
$var wire 1 - S2 $end
$var wire 1 . S3 $end

$scope module i1 $end
$var wire 1 / gnd $end
$var wire 1 0 vcc $end
$var wire 1 1 unknown $end
$var tri1 1 2 devclrn $end
$var tri1 1 3 devpor $end
$var tri1 1 4 devoe $end
$var wire 1 5 ~QUARTUS_CREATED_GND~I_combout $end
$var wire 1 6 ~QUARTUS_CREATED_UNVM~~busy $end
$var wire 1 7 ~QUARTUS_CREATED_ADC1~~eoc $end
$var wire 1 8 ~QUARTUS_CREATED_ADC2~~eoc $end
$var wire 1 9 S0~output_o $end
$var wire 1 : S1~output_o $end
$var wire 1 ; S2~output_o $end
$var wire 1 < S3~output_o $end
$var wire 1 = C4~output_o $end
$var wire 1 > B0~input_o $end
$var wire 1 ? A0~input_o $end
$var wire 1 @ C0~input_o $end
$var wire 1 A inst3|inst2~0_combout $end
$var wire 1 B inst3|inst5~0_combout $end
$var wire 1 C A1~input_o $end
$var wire 1 D B1~input_o $end
$var wire 1 E inst2|inst2~combout $end
$var wire 1 F A2~input_o $end
$var wire 1 G B2~input_o $end
$var wire 1 H inst2|inst5~0_combout $end
$var wire 1 I inst4|inst2~combout $end
$var wire 1 J A3~input_o $end
$var wire 1 K B3~input_o $end
$var wire 1 L inst4|inst5~0_combout $end
$var wire 1 M inst5|inst2~combout $end
$var wire 1 N inst5|inst5~0_combout $end
$upscope $end
$upscope $end
$enddefinitions $end
#0
$dumpvars
0!
0"
0#
0$
1%
1&
0'
0(
0)
0*
1+
1,
0-
0.
0/
10
x1
12
13
14
05
z6
z7
z8
19
1:
0;
0<
0=
1>
0?
0@
1A
0B
0C
1D
1E
0F
0G
0H
0I
0J
0K
0L
0M
0N
$end
#100000
1!
0%
0&
1'
1G
0D
0>
1?
1I
0E
0:
1;
1-
0,
#200000
1"
0!
1%
1&
1D
1>
0?
1C
1H
1L
0I
0;
0-
1M
1<
1.
#300000
1#
1(
0"
1!
0&
0D
1?
0C
1K
1F
0H
1B
0A
1N
0M
1I
1;
0<
1=
09
0+
1*
0.
1-
0I
1E
1:
0;
0-
1,
#400000
0'
1"
0!
1&
1D
0?
1C
0G
1H
0B
0L
1A
1I
1;
19
1L
1+
1-
0I
0E
0N
1M
1<
0=
0:
0;
0-
0,
0*
1.
1N
0M
0<
1=
1*
0.
#500000
1$
0%
0#
0(
1'
0"
1!
1?
0C
1G
0K
0F
0>
1J
0H
1E
1:
0L
1,
1I
1;
1-
0N
1M
1<
0=
0*
1.
#600000
0'
1"
0!
0?
1C
0G
1H
0A
0E
0I
0;
0:
09
0+
0,
0-
1I
1;
1-
#700000
0&
1%
1#
1(
1'
0"
1!
1?
0C
1G
1K
1F
1>
0D
1B
0H
1L
1N
0M
0<
1=
1*
0.
1E
0I
1M
1<
0;
1:
1,
0-
1.
#800000
0(
0'
1"
0!
0?
1C
0G
0K
0B
1H
0L
1A
0E
1I
0M
0<
1;
0:
19
0H
1L
1+
0,
1-
0.
1E
0I
0N
1M
1<
0=
0;
1:
0L
1,
0-
0*
1.
1I
1N
0M
0<
1=
1;
1-
1*
0.
0N
1M
1<
0=
0*
1.
#900000
1!
1?
1B
0A
09
1H
0+
0E
0:
1L
0,
0I
0;
0-
1N
0M
0<
1=
1*
0.
